<?xml version="1.0" encoding="UTF-8" standalone="no"?>
<graphml xmlns="http://graphml.graphdrawing.org/xmlns" xmlns:java="http://www.yworks.com/xml/yfiles-common/1.0/java" xmlns:sys="http://www.yworks.com/xml/yfiles-common/markup/primitives/2.0" xmlns:x="http://www.yworks.com/xml/yfiles-common/markup/2.0" xmlns:xsi="http://www.w3.org/2001/XMLSchema-instance" xmlns:y="http://www.yworks.com/xml/graphml" xmlns:yed="http://www.yworks.com/xml/yed/3" xsi:schemaLocation="http://graphml.graphdrawing.org/xmlns http://www.yworks.com/xml/schema/graphml/1.1/ygraphml.xsd">
  <!--Created by yEd 3.18.1-->
  <key attr.name="Beschreibung" attr.type="string" for="graph" id="d0"/>
  <key for="port" id="d1" yfiles.type="portgraphics"/>
  <key for="port" id="d2" yfiles.type="portgeometry"/>
  <key for="port" id="d3" yfiles.type="portuserdata"/>
  <key attr.name="url" attr.type="string" for="node" id="d4"/>
  <key attr.name="description" attr.type="string" for="node" id="d5"/>
  <key for="node" id="d6" yfiles.type="nodegraphics"/>
  <key for="graphml" id="d7" yfiles.type="resources"/>
  <key attr.name="url" attr.type="string" for="edge" id="d8"/>
  <key attr.name="description" attr.type="string" for="edge" id="d9"/>
  <key for="edge" id="d10" yfiles.type="edgegraphics"/>
  <graph edgedefault="directed" id="G">
    <data key="d0"/>
    <node id="n0">
      <data key="d6">
        <y:GenericNode configuration="com.yworks.entityRelationship.big_entity">
          <y:Geometry height="100.0" width="240.0" x="319.0" y="10.25"/>
          <y:Fill color="#C6E0B4" color2="#A9D08E" transparent="false"/>
          <y:BorderStyle color="#000000" type="line" width="1.0"/>
          <y:NodeLabel alignment="center" autoSizePolicy="content" backgroundColor="#A9D08E" configuration="com.yworks.entityRelationship.label.name" fontFamily="Fira Code" fontSize="12" fontStyle="bold" hasLineColor="false" height="18.39208984375" horizontalTextPosition="center" iconTextGap="4" modelName="internal" modelPosition="t" textColor="#000000" verticalTextPosition="bottom" visible="true" width="68.764404296875" x="85.6177978515625" y="4.0">Customers</y:NodeLabel>
          <y:NodeLabel alignment="left" autoSizePolicy="content" configuration="com.yworks.entityRelationship.label.attributes" fontFamily="Fira Code" fontSize="12" fontStyle="plain" hasBackgroundColor="false" hasLineColor="false" height="61.568359375" horizontalTextPosition="center" iconTextGap="4" modelName="custom" textColor="#000000" verticalTextPosition="top" visible="true" width="212.685302734375" x="2.0" y="30.39208984375"># Customer ID
* ID Card Number
* Billing Address ID
* Default Shipping Address ID<y:LabelModel>
              <y:ErdAttributesNodeLabelModel/>
            </y:LabelModel>
            <y:ModelParameter>
              <y:ErdAttributesNodeLabelModelParameter/>
            </y:ModelParameter>
          </y:NodeLabel>
          <y:StyleProperties>
            <y:Property class="java.lang.Boolean" name="y.view.ShadowNodePainter.SHADOW_PAINTING" value="true"/>
          </y:StyleProperties>
        </y:GenericNode>
      </data>
    </node>
    <node id="n1">
      <data key="d6">
        <y:GenericNode configuration="com.yworks.entityRelationship.big_entity">
          <y:Geometry height="220.0" width="240.0" x="319.0" y="285.25"/>
          <y:Fill color="#C6E0B4" color2="#A9D08E" transparent="false"/>
          <y:BorderStyle color="#000000" type="line" width="1.0"/>
          <y:NodeLabel alignment="center" autoSizePolicy="content" backgroundColor="#A9D08E" configuration="com.yworks.entityRelationship.label.name" fontFamily="Fira Code" fontSize="12" fontStyle="bold" hasLineColor="false" height="18.39208984375" horizontalTextPosition="center" iconTextGap="4" modelName="internal" modelPosition="t" textColor="#000000" verticalTextPosition="bottom" visible="true" width="61.568359375" x="89.2158203125" y="4.0">Products</y:NodeLabel>
          <y:NodeLabel alignment="left" autoSizePolicy="content" configuration="com.yworks.entityRelationship.label.attributes" fontFamily="Fira Code" fontSize="12" fontStyle="plain" hasBackgroundColor="false" hasLineColor="false" height="176.705078125" horizontalTextPosition="center" iconTextGap="4" modelName="custom" textColor="#000000" verticalTextPosition="top" visible="true" width="191.09716796875" x="2.0" y="30.39208984375"># Product ID
* Product Name (Localized)
* Product Type
* Stock
* Unit Price
* Nicotine
* Content (Localized)
* MixRecommendationMin
* MixRecommendationMax
* Flavour (Localized)
* Manufacturer
* ImageFileName<y:LabelModel>
              <y:ErdAttributesNodeLabelModel/>
            </y:LabelModel>
            <y:ModelParameter>
              <y:ErdAttributesNodeLabelModelParameter/>
            </y:ModelParameter>
          </y:NodeLabel>
          <y:StyleProperties>
            <y:Property class="java.lang.Boolean" name="y.view.ShadowNodePainter.SHADOW_PAINTING" value="true"/>
          </y:StyleProperties>
        </y:GenericNode>
      </data>
    </node>
    <node id="n2">
      <data key="d6">
        <y:GenericNode configuration="com.yworks.entityRelationship.big_entity">
          <y:Geometry height="130.0" width="180.0" x="656.0" y="177.75"/>
          <y:Fill color="#E8EEF7" color2="#B7C9E3" transparent="false"/>
          <y:BorderStyle color="#000000" type="line" width="1.0"/>
          <y:NodeLabel alignment="center" autoSizePolicy="content" backgroundColor="#B7C9E3" configuration="com.yworks.entityRelationship.label.name" fontFamily="Fira Code" fontSize="12" fontStyle="bold" hasLineColor="false" height="18.39208984375" horizontalTextPosition="center" iconTextGap="4" modelName="internal" modelPosition="t" textColor="#000000" verticalTextPosition="bottom" visible="true" width="47.17626953125" x="66.411865234375" y="4.0">Orders</y:NodeLabel>
          <y:NodeLabel alignment="left" autoSizePolicy="content" configuration="com.yworks.entityRelationship.label.attributes" fontFamily="Fira Code" fontSize="12" fontStyle="plain" hasBackgroundColor="false" hasLineColor="false" height="90.3525390625" horizontalTextPosition="center" iconTextGap="4" modelName="custom" textColor="#000000" verticalTextPosition="top" visible="true" width="155.116943359375" x="2.0" y="30.39208984375"># Order ID
* Order Date
* Order State
* Customer-ID
o Shipping Address ID
* Total Price<y:LabelModel>
              <y:ErdAttributesNodeLabelModel/>
            </y:LabelModel>
            <y:ModelParameter>
              <y:ErdAttributesNodeLabelModelParameter/>
            </y:ModelParameter>
          </y:NodeLabel>
          <y:StyleProperties>
            <y:Property class="java.lang.Boolean" name="y.view.ShadowNodePainter.SHADOW_PAINTING" value="true"/>
          </y:StyleProperties>
        </y:GenericNode>
      </data>
    </node>
    <node id="n3">
      <data key="d6">
        <y:GenericNode configuration="com.yworks.entityRelationship.big_entity">
          <y:Geometry height="130.0" width="180.0" x="656.0" y="375.25"/>
          <y:Fill color="#E8EEF7" color2="#B7C9E3" transparent="false"/>
          <y:BorderStyle color="#000000" type="line" width="1.0"/>
          <y:NodeLabel alignment="center" autoSizePolicy="content" backgroundColor="#B7C9E3" configuration="com.yworks.entityRelationship.label.name" fontFamily="Fira Code" fontSize="12" fontStyle="bold" hasLineColor="false" height="18.39208984375" horizontalTextPosition="center" iconTextGap="4" modelName="internal" modelPosition="t" textColor="#000000" verticalTextPosition="bottom" visible="true" width="83.156494140625" x="48.4217529296875" y="4.0">Order Lines</y:NodeLabel>
          <y:NodeLabel alignment="left" autoSizePolicy="content" configuration="com.yworks.entityRelationship.label.attributes" fontFamily="Fira Code" fontSize="12" fontStyle="plain" hasBackgroundColor="false" hasLineColor="false" height="90.3525390625" horizontalTextPosition="center" iconTextGap="4" modelName="custom" textColor="#000000" verticalTextPosition="top" visible="true" width="111.940673828125" x="2.0" y="30.39208984375"># Order Line ID
* Order ID
* Creation Date
* Product ID
* Quantity
* Unit Price<y:LabelModel>
              <y:ErdAttributesNodeLabelModel/>
            </y:LabelModel>
            <y:ModelParameter>
              <y:ErdAttributesNodeLabelModelParameter/>
            </y:ModelParameter>
          </y:NodeLabel>
          <y:StyleProperties>
            <y:Property class="java.lang.Boolean" name="y.view.ShadowNodePainter.SHADOW_PAINTING" value="true"/>
          </y:StyleProperties>
        </y:GenericNode>
      </data>
    </node>
    <node id="n4">
      <data key="d6">
        <y:GenericNode configuration="com.yworks.entityRelationship.big_entity">
          <y:Geometry height="100.0" width="180.0" x="656.0" y="10.25"/>
          <y:Fill color="#C6E0B4" color2="#A9D08E" transparent="false"/>
          <y:BorderStyle color="#000000" type="line" width="1.0"/>
          <y:NodeLabel alignment="center" autoSizePolicy="content" backgroundColor="#A9D08E" configuration="com.yworks.entityRelationship.label.name" fontFamily="Fira Code" fontSize="12" fontStyle="bold" hasLineColor="false" height="18.39208984375" horizontalTextPosition="center" iconTextGap="4" modelName="internal" modelPosition="t" textColor="#000000" verticalTextPosition="bottom" visible="true" width="68.764404296875" x="55.6177978515625" y="4.0">Addresses</y:NodeLabel>
          <y:NodeLabel alignment="left" autoSizePolicy="content" configuration="com.yworks.entityRelationship.label.attributes" fontFamily="Fira Code" fontSize="12" fontStyle="plain" hasBackgroundColor="false" hasLineColor="false" height="61.568359375" horizontalTextPosition="center" iconTextGap="4" modelName="custom" textColor="#000000" verticalTextPosition="top" visible="true" width="162.31298828125" x="2.0" y="30.39208984375"># Address ID
* Postcode
* City
* Street and House No.<y:LabelModel>
              <y:ErdAttributesNodeLabelModel/>
            </y:LabelModel>
            <y:ModelParameter>
              <y:ErdAttributesNodeLabelModelParameter/>
            </y:ModelParameter>
          </y:NodeLabel>
          <y:StyleProperties>
            <y:Property class="java.lang.Boolean" name="y.view.ShadowNodePainter.SHADOW_PAINTING" value="true"/>
          </y:StyleProperties>
        </y:GenericNode>
      </data>
    </node>
    <node id="n5">
      <data key="d6">
        <y:GenericNode configuration="com.yworks.entityRelationship.big_entity">
          <y:Geometry height="120.0" width="180.0" x="12.0" y="385.25"/>
          <y:Fill color="#E8EEF7" color2="#B7C9E3" transparent="false"/>
          <y:BorderStyle color="#000000" type="line" width="1.0"/>
          <y:NodeLabel alignment="center" autoSizePolicy="content" backgroundColor="#B7C9E3" configuration="com.yworks.entityRelationship.label.name" fontFamily="Fira Code" fontSize="12" fontStyle="bold" hasLineColor="false" height="18.39208984375" horizontalTextPosition="center" iconTextGap="4" modelName="internal" modelPosition="t" textColor="#000000" verticalTextPosition="bottom" visible="true" width="90.3525390625" x="44.82373046875" y="4.0">Basket Items</y:NodeLabel>
          <y:NodeLabel alignment="left" autoSizePolicy="content" configuration="com.yworks.entityRelationship.label.attributes" fontFamily="Fira Code" fontSize="12" fontStyle="plain" hasBackgroundColor="false" hasLineColor="false" height="75.96044921875" horizontalTextPosition="center" iconTextGap="4" modelName="custom" textColor="#000000" verticalTextPosition="top" visible="true" width="119.13671875" x="2.0" y="30.39208984375"># Basket Item ID
* Customer ID
* Creation Date
* Product ID
* Quantity<y:LabelModel>
              <y:ErdAttributesNodeLabelModel/>
            </y:LabelModel>
            <y:ModelParameter>
              <y:ErdAttributesNodeLabelModelParameter/>
            </y:ModelParameter>
          </y:NodeLabel>
          <y:StyleProperties>
            <y:Property class="java.lang.Boolean" name="y.view.ShadowNodePainter.SHADOW_PAINTING" value="true"/>
          </y:StyleProperties>
        </y:GenericNode>
      </data>
    </node>
    <node id="n6">
      <data key="d6">
        <y:GenericNode configuration="com.yworks.entityRelationship.small_entity">
          <y:Geometry height="40.0" width="80.0" x="12.0" y="222.75"/>
          <y:Fill color="#FFE699" color2="#FFD966" transparent="false"/>
          <y:BorderStyle color="#000000" type="line" width="1.0"/>
          <y:NodeLabel alignment="center" autoSizePolicy="content" fontFamily="Fira Code" fontSize="12" fontStyle="bold" hasBackgroundColor="false" hasLineColor="false" height="18.39208984375" horizontalTextPosition="center" iconTextGap="4" modelName="custom" textColor="#000000" verticalTextPosition="bottom" visible="true" width="39.980224609375" x="20.0098876953125" y="10.803955078125">Users<y:LabelModel>
              <y:SmartNodeLabelModel distance="4.0"/>
            </y:LabelModel>
            <y:ModelParameter>
              <y:SmartNodeLabelModelParameter labelRatioX="0.0" labelRatioY="0.0" nodeRatioX="0.0" nodeRatioY="0.0" offsetX="0.0" offsetY="0.0" upX="0.0" upY="-1.0"/>
            </y:ModelParameter>
          </y:NodeLabel>
          <y:StyleProperties>
            <y:Property class="java.lang.Boolean" name="y.view.ShadowNodePainter.SHADOW_PAINTING" value="true"/>
          </y:StyleProperties>
        </y:GenericNode>
      </data>
    </node>
    <node id="n7">
      <data key="d6">
        <y:GenericNode configuration="com.yworks.entityRelationship.big_entity">
          <y:Geometry height="130.0" width="180.0" x="12.0" y="10.25"/>
          <y:Fill color="#C6E0B4" color2="#A9D08E" transparent="false"/>
          <y:BorderStyle color="#000000" type="line" width="1.0"/>
          <y:NodeLabel alignment="center" autoSizePolicy="content" backgroundColor="#A9D08E" configuration="com.yworks.entityRelationship.label.name" fontFamily="Fira Code" fontSize="12" fontStyle="bold" hasLineColor="false" height="18.39208984375" horizontalTextPosition="center" iconTextGap="4" modelName="internal" modelPosition="t" textColor="#000000" verticalTextPosition="bottom" visible="true" width="39.980224609375" x="70.0098876953125" y="4.0">Users</y:NodeLabel>
          <y:NodeLabel alignment="left" autoSizePolicy="content" configuration="com.yworks.entityRelationship.label.attributes" fontFamily="Fira Code" fontSize="12" fontStyle="plain" hasBackgroundColor="false" hasLineColor="false" height="90.3525390625" horizontalTextPosition="center" iconTextGap="4" modelName="custom" textColor="#000000" verticalTextPosition="top" visible="true" width="162.31298828125" x="2.0" y="30.39208984375">* E-Mail Address
* First Name
* Last Name
* User Agent
* Remote IP Address
* Forwarded IP Address<y:LabelModel>
              <y:ErdAttributesNodeLabelModel/>
            </y:LabelModel>
            <y:ModelParameter>
              <y:ErdAttributesNodeLabelModelParameter/>
            </y:ModelParameter>
          </y:NodeLabel>
          <y:StyleProperties>
            <y:Property class="java.lang.Boolean" name="y.view.ShadowNodePainter.SHADOW_PAINTING" value="true"/>
          </y:StyleProperties>
        </y:GenericNode>
      </data>
    </node>
    <edge id="e0" source="n3" target="n2">
      <data key="d10">
        <y:PolyLineEdge>
          <y:Path sx="0.0" sy="0.0" tx="-5.6843418860808015E-14" ty="43.0"/>
          <y:LineStyle color="#000000" type="line" width="1.0"/>
          <y:Arrows source="crows_foot_many_mandatory" target="crows_foot_one_mandatory"/>
          <y:BendStyle smoothed="true"/>
        </y:PolyLineEdge>
      </data>
    </edge>
    <edge id="e1" source="n2" target="n0">
      <data key="d8"/>
      <data key="d10">
        <y:PolyLineEdge>
          <y:Path sx="1.5524999999997817" sy="-25.08750000000009" tx="63.0" ty="9.75">
            <y:Point x="502.0" y="217.6624999999999"/>
          </y:Path>
          <y:LineStyle color="#000000" type="line" width="1.0"/>
          <y:Arrows source="crows_foot_many_optional" target="crows_foot_one_mandatory"/>
          <y:BendStyle smoothed="true"/>
        </y:PolyLineEdge>
      </data>
    </edge>
    <edge id="e2" source="n3" target="n1">
      <data key="d10">
        <y:PolyLineEdge>
          <y:Path sx="0.0" sy="0.0" tx="4.802499999999782" ty="45.0"/>
          <y:LineStyle color="#000000" type="line" width="1.0"/>
          <y:Arrows source="crows_foot_many_mandatory" target="crows_foot_one_mandatory"/>
          <y:BendStyle smoothed="true"/>
        </y:PolyLineEdge>
      </data>
    </edge>
    <edge id="e3" source="n2" target="n4">
      <data key="d10">
        <y:PolyLineEdge>
          <y:Path sx="0.0" sy="0.0" tx="0.0" ty="0.0"/>
          <y:LineStyle color="#000000" type="line" width="1.0"/>
          <y:Arrows source="crows_foot_many_optional" target="crows_foot_one_optional"/>
          <y:BendStyle smoothed="true"/>
        </y:PolyLineEdge>
      </data>
    </edge>
    <edge id="e4" source="n0" target="n4">
      <data key="d10">
        <y:PolyLineEdge>
          <y:Path sx="0.0" sy="0.0" tx="0.0" ty="0.0"/>
          <y:LineStyle color="#000000" type="line" width="1.0"/>
          <y:Arrows source="crows_foot_one_optional" target="crows_foot_many_optional"/>
          <y:BendStyle smoothed="true"/>
        </y:PolyLineEdge>
      </data>
    </edge>
    <edge id="e5" source="n1" target="n5">
      <data key="d10">
        <y:PolyLineEdge>
          <y:Path sx="-1.4475000000002183" sy="50.0" tx="0.0" ty="0.0"/>
          <y:LineStyle color="#000000" type="line" width="1.0"/>
          <y:Arrows source="crows_foot_one_mandatory" target="crows_foot_many_optional"/>
          <y:BendStyle smoothed="true"/>
        </y:PolyLineEdge>
      </data>
    </edge>
    <edge id="e6" source="n0" target="n5">
      <data key="d10">
        <y:PolyLineEdge>
          <y:Path sx="-55.0" sy="4.75" tx="63.0" ty="3.75">
            <y:Point x="384.0" y="217.0"/>
            <y:Point x="165.0" y="217.0"/>
          </y:Path>
          <y:LineStyle color="#000000" type="line" width="1.0"/>
          <y:Arrows source="crows_foot_one_mandatory" target="crows_foot_many_optional"/>
          <y:BendStyle smoothed="true"/>
        </y:PolyLineEdge>
      </data>
    </edge>
    <edge id="e7" source="n7" target="n6">
      <data key="d8"/>
      <data key="d10">
        <y:PolyLineEdge>
          <y:Path sx="-50.0" sy="3.75" tx="0.0" ty="0.0"/>
          <y:LineStyle color="#000000" type="line" width="1.0"/>
          <y:Arrows source="none" target="white_delta"/>
          <y:BendStyle smoothed="true"/>
        </y:PolyLineEdge>
      </data>
    </edge>
    <edge id="e8" source="n0" target="n7">
      <data key="d8"/>
      <data key="d10">
        <y:PolyLineEdge>
          <y:Path sx="0.0" sy="0.0" tx="2.0" ty="-15.0"/>
          <y:LineStyle color="#000000" type="line" width="1.0"/>
          <y:Arrows source="none" target="white_delta"/>
          <y:BendStyle smoothed="true"/>
        </y:PolyLineEdge>
      </data>
    </edge>
  </graph>
  <data key="d7">
    <y:Resources/>
  </data>
</graphml>
